{
	"serviceType": "Web Service",
	"transactionId": "Times2",
	"domain": "maths",
	"state": "Active",
	"_comment": "The service returns the times 2 of a given number",
	"serviceURL": "http://192.168.1.147:8000/?",
	"clientURL": "http://192.168.1.147:8000/?",
   "method": "GET", 
   "_methodcomment": "Can also be GET. Note:If method is POST, then value generated from previous service is going to be in the body. 'inputs' will be ignored.",
	"inputs": [
					{
						"name": "addition",
						"type": "String"
               }
	         ],
	"output": {
				"name": "times_2",
            "type": "String"
   },
	"date": "2016 Aug 25 14:00:11"
}

